…
Summarise monthly returns since 2017-01-01 for each of the stocks and SPY; min, max, median, mean, SD.

summarise_monthly_returns <- myStocks_returns_monthly %>% 
  summarise(min=min(monthly_returns),max=max(monthly_returns),median=median(monthly_returns),mean = mean(monthly_returns),SD=sd(monthly_returns))

summarise_monthly_returns

## # A tibble: 31 x 6
##    symbol    min   max median    mean     SD
##    <chr>   <dbl> <dbl>  <dbl>   <dbl>  <dbl>
##  1 AAPL   -0.577 0.454 0.0352 0.0275  0.116 
##  2 AMGN   -0.170 0.328 0.0104 0.00916 0.0738
##  3 AXP    -0.279 0.875 0.0102 0.00824 0.0918
##  4 BA     -0.458 0.257 0.0179 0.0120  0.0887
##  5 CAT    -0.353 0.350 0.0133 0.0143  0.0908
##  6 CRM    -0.360 0.403 0.0205 0.0276  0.113 
##  7 CSCO   -0.367 0.389 0.0125 0.00495 0.0971
##  8 CVX    -0.224 0.270 0.0122 0.00852 0.0630
##  9 DIS    -0.268 0.234 0.0107 0.00981 0.0725
## 10 DOW    -0.276 0.255 0.0456 0.00898 0.128 
## # … with 21 more rows
…
